<?xml version="1.0" encoding="UTF-8" standalone="no"?>
<!-- Created with Inkscape (http://www.inkscape.org/) -->

<svg
   xmlns:dc="http://purl.org/dc/elements/1.1/"
   xmlns:cc="http://creativecommons.org/ns#"
   xmlns:rdf="http://www.w3.org/1999/02/22-rdf-syntax-ns#"
   xmlns:svg="http://www.w3.org/2000/svg"
   xmlns="http://www.w3.org/2000/svg"
   xmlns:sodipodi="http://sodipodi.sourceforge.net/DTD/sodipodi-0.dtd"
   xmlns:inkscape="http://www.inkscape.org/namespaces/inkscape"
   id="svg2"
   version="1.1"
   inkscape:version="0.91 r13725"
   xml:space="preserve"
   width="800"
   height="800"
   viewBox="0 0 800 800"
   sodipodi:docname="Apertis title RGB.svg"
   inkscape:export-filename="/home/glunardi/tmp/Apertis.png"
   inkscape:export-xdpi="101.25"
   inkscape:export-ydpi="101.25"><metadata
     id="metadata8"><rdf:RDF><cc:Work
         rdf:about=""><dc:format>image/svg+xml</dc:format><dc:type
           rdf:resource="http://purl.org/dc/dcmitype/StillImage" /><dc:title></dc:title></cc:Work></rdf:RDF></metadata><defs
     id="defs6" /><sodipodi:namedview
     pagecolor="#ffffff"
     bordercolor="#666666"
     borderopacity="1"
     objecttolerance="10"
     gridtolerance="10"
     guidetolerance="10"
     inkscape:pageopacity="0"
     inkscape:pageshadow="2"
     inkscape:window-width="1366"
     inkscape:window-height="704"
     id="namedview4"
     showgrid="false"
     showguides="true"
     inkscape:guide-bbox="true"
     inkscape:zoom="0.46940721"
     inkscape:cx="344.32075"
     inkscape:cy="428.72491"
     inkscape:window-x="0"
     inkscape:window-y="27"
     inkscape:window-maximized="1"
     inkscape:current-layer="g12" /><g
     id="g10"
     inkscape:groupmode="layer"
     inkscape:label="ink_ext_XXXXXX"
     transform="matrix(1.25,0,0,-1.25,0,799.99999)"><g
       id="g12"
       transform="scale(0.1,0.1)"><path
         d="m 3365.4098,4513.9549 492.11,-852.34 c 390.7099,-67.24 754.8599,-213.05 1075.4799,-420.64 l -1567.5899,2715.09 -1567.54,-2715.11 c 320.62,207.59 684.76,353.42 1075.43,420.66 l 492.11,852.34"
         style="fill:#3a5a82;fill-opacity:1;fill-rule:nonzero;stroke:none"
         id="path14"
         inkscape:connector-curvature="0" /><path
         d="m 4737.6697,3042.0749 c -213.64,131.91 -447.52,233.97 -695.8499,300.37 -215.85,57.74 -442.54,88.7 -676.36,88.7 -233.83,0 -460.52,-30.96 -676.42,-88.7 -248.3201,-66.42 -482.2,-168.46 -695.8401,-300.37 -405.87,-250.53 -738.565,-608.62 -958.026,-1034.26 l 857.236,0 c 348.47,428.15 879.26,702.28 1473.05,702.28 593.79,0 1124.53,-274.13 1472.99,-702.28 l 857.24,0 c -219.46,425.64 -552.15,783.73 -958.02,1034.26"
         style="fill:#3a5a82;fill-opacity:1;fill-rule:nonzero;stroke:none"
         id="path16"
         inkscape:connector-curvature="0" /><path
         d="m 723.63513,1403.9349 98.7159,0 439.88877,-959.99998 -143.754,0 -130.75085,282.8728 -418.56402,0 -122.59179,-282.8728 -144.33939,0 421.39538,959.99998 z M 929.98795,848.43008 771.70604,1194.1669 624.92022,848.43008 l 305.06773,0"
         style="fill:#3a5a82;fill-opacity:1;fill-rule:nonzero;stroke:none"
         id="path18"
         inkscape:connector-curvature="0" /><path
         d="m 1462.7652,443.93492 0,879.99998 311.9401,0 c 93.89,0 168.75,-22.6433 224.6299,-67.9362 55.8601,-45.2858 83.7901,-106.0926 83.7901,-182.4142 0,-51.1592 -14.33,-96.44848 -42.95,-135.86883 -28.64,-39.41678 -67.85,-68.03716 -117.6,-85.86114 -49.75,-17.82041 -121.11,-26.73284 -214.06,-26.73284 l -104.21,0 0,-381.18677 -141.5401,0 z m 287.29,768.03398 -145.75,0 0,-274.88122 154.2101,0 c 57.27,0 101.4,12.05595 132.3799,36.16875 30.98,24.1119 46.47,58.60487 46.47,103.47247 0,90.1597 -62.43,135.24 -187.31,135.24"
         style="fill:#3a5a82;fill-opacity:1;fill-rule:nonzero;stroke:none"
         id="path20"
         inkscape:connector-curvature="0" /><path
         d="m 2283.6507,1321.4192 557.69,0 0,-111.966 -416.86,0 0,-267.96531 402.77,0 0,-112.59398 -402.77,0 0,-272.99282 430.2399,0 0,-111.96617 -571.07,0 0,877.48428"
         style="fill:#3a5a82;fill-opacity:1;fill-rule:nonzero;stroke:none"
         id="path22"
         inkscape:connector-curvature="0" /><path
         d="m 3167.2461,443.93492 0,878.74398 246.45,0 c 99.52,0 178.5,-22.0189 236.9499,-66.0486 58.44,-44.0334 87.6701,-103.5806 87.6701,-178.6418 0,-51.1592 -14.3201,-95.40157 -42.9601,-132.72446 -28.63,-37.32021 -69.71,-65.20809 -123.23,-83.66006 31.46,-18.44839 62.21,-43.61081 92.25,-75.48012 30.04,-31.87288 72.29,-87.43513 126.75,-166.69033 34.25,-49.90321 61.72,-87.43513 82.37,-112.59434 l 52.11,-62.90427 -167.5799,0 -42.9001,57.88992 c -1.4099,2.0972 -4.23,5.66342 -8.4299,10.71609 l -27.44,34.61495 -43.5901,64.18169 -47.13,68.60619 c -29.05,36.08389 -55.7,64.80968 -79.89,86.15414 -24.21,21.34536 -46.0799,36.73689 -65.56,46.14779 -19.53,9.41447 -52.3,14.13287 -98.3499,14.13287 l -36.66,0 0,-382.44364 -140.83,0 z m 183.08,771.80998 -42.25,0 0,-277.40124 53.51,0 c 71.36,0 120.3,5.45448 146.82,16.35539 26.52,10.90449 47.18,27.36441 61.97,49.37885 14.78,22.0153 22.18,47.0732 22.18,75.1701 0,27.6744 -8.22,52.7323 -24.65,75.1657 -16.43,22.4343 -39.5501,38.2654 -69.36,47.4913 -29.81,9.2269 -79.22,13.8399 -148.22,13.8399"
         style="fill:#3a5a82;fill-opacity:1;fill-rule:nonzero;stroke:none"
         id="path24"
         inkscape:connector-curvature="0" /><path
         d="m 3982.1316,1323.9349 821.7499,0 0,-111.966 -342.92,0 0,-768.03398 -141.54,0 0,768.03398 -337.29,0 0,111.966"
         style="fill:#3a5a82;fill-opacity:1;fill-rule:nonzero;stroke:none"
         id="path26"
         inkscape:connector-curvature="0" /><path
         d="m 5036.4067,443.93492 140.8281,0 0,878.74368 -140.8281,0 0,-878.74368 z"
         style="fill:#3a5a82;fill-opacity:1;fill-rule:nonzero;stroke:none"
         id="path28"
         inkscape:connector-curvature="0" /><path
         d="m 5773.8534,847.34947 -138.8821,61.94117 c -87.1079,39.06538 -149.0814,77.48291 -185.9464,115.27546 -36.8519,37.7925 -55.2647,81.2871 -55.2647,130.4818 0,73.7988 34.8667,133.7278 104.6127,179.7928 69.7459,46.066 160.3575,69.0942 271.8346,69.0942 106.5978,0 204.3591,-21.9526 293.2967,-65.9159 l 0,-152.2868 c -91.9869,64.9604 -190.968,97.4529 -296.9562,97.4529 -59.7025,0 -108.7256,-10.1293 -147.109,-30.4118 -38.3701,-20.2605 -57.5618,-46.2222 -57.5618,-77.844 0,-28.0643 14.1309,-54.3613 42.3927,-78.8491 28.2618,-24.5068 73.7429,-50.2227 136.391,-77.1933 l 139.5571,-60.62353 c 155.6861,-68.29487 233.5422,-155.19352 233.5422,-260.74074 0,-75.13826 -34.2696,-136.18673 -102.796,-183.14589 -68.5264,-46.96248 -157.6196,-70.44182 -267.2669,-70.44182 -126.0879,0 -240.9127,28.44397 -344.4613,85.37649 l 0,170.40343 c 98.6825,-91.82232 212.8975,-137.70918 342.6446,-137.70918 57.2633,0 104.9241,11.69656 142.9959,35.08682 38.0714,23.41217 57.1073,52.70834 57.1073,87.90663 0,57.04418 -56.0435,111.1597 -168.1302,162.35036"
         style="fill:#3a5a82;fill-opacity:1;fill-rule:nonzero;stroke:none"
         id="path30"
         inkscape:connector-curvature="0" /></g></g></svg>